module gitlab.com/birowo/wschat

go 1.22.4

require github.com/valyala/fasthttp v1.54.0

require (
	github.com/andybalholm/brotli v1.1.0 // indirect
	github.com/klauspost/compress v1.17.7 // indirect
	github.com/valyala/bytebufferpool v1.0.0 // indirect
)
